,Sex,Job,Housing,Saving accounts,Checking account,Purpose
0,male,skilled,own,little,little,radio/TV
1,female,skilled,own,little,moderate,radio/TV
2,male,unskilled and resident,own,little,little,education
3,male,skilled,free,little,little,furniture/equipment
4,male,skilled,free,little,little,car
5,male,unskilled and resident,free,little,little,education
6,male,skilled,own,quite rich,little,furniture/equipment
7,male,highly skilled,rent,little,moderate,car
8,male,unskilled and resident,own,rich,little,radio/TV
9,male,highly skilled,own,little,moderate,car
10,female,skilled,rent,little,moderate,car
11,female,skilled,rent,little,little,business
12,female,skilled,own,little,moderate,radio/TV
13,male,unskilled and resident,own,little,little,car
14,female,skilled,rent,little,little,car
15,female,unskilled and resident,own,moderate,little,radio/TV
16,male,skilled,own,little,little,radio/TV
17,male,skilled,own,little,little,business
18,female,highly skilled,free,little,moderate,car
19,male,skilled,own,quite rich,little,radio/TV
20,male,skilled,own,little,little,car
21,male,skilled,rent,quite rich,little,radio/TV
22,male,unskilled and resident,rent,little,little,car
23,male,skilled,own,moderate,moderate,car
24,male,skilled,own,little,little,furniture/equipment
25,male,unskilled and resident,own,little,little,furniture/equipment
26,male,unskilled and resident,own,little,little,radio/TV
27,female,skilled,rent,rich,rich,radio/TV
28,male,skilled,own,little,moderate,radio/TV
29,male,skilled,own,little,little,business
30,male,skilled,own,rich,moderate,business
31,male,skilled,own,little,little,furniture/equipment
32,male,skilled,own,moderate,moderate,car
33,male,unskilled and resident,rent,little,little,business
34,female,highly skilled,own,little,rich,furniture/equipment
35,male,unskilled and resident,own,little,moderate,radio/TV
36,male,skilled,free,little,little,education
37,male,skilled,own,little,rich,radio/TV
38,male,skilled,own,little,rich,domestic appliances
39,male,skilled,own,little,moderate,radio/TV
40,male,highly skilled,own,quite rich,little,radio/TV
41,male,skilled,own,quite rich,moderate,radio/TV
42,male,unskilled and resident,own,little,moderate,repairs
43,male,skilled,rent,moderate,little,car
44,female,unskilled and resident,free,little,little,car
45,female,highly skilled,own,little,little,car
46,male,skilled,own,quite rich,little,radio/TV
47,female,unskilled and non-resident,rent,quite rich,little,car
48,male,unskilled and resident,own,little,little,car
49,female,skilled,own,moderate,little,radio/TV
50,male,unskilled and resident,own,little,moderate,furniture/equipment
51,male,highly skilled,own,little,moderate,car
52,male,skilled,own,little,little,radio/TV
53,male,skilled,own,little,little,car
54,male,skilled,free,little,moderate,car
55,male,unskilled and resident,own,little,little,car
56,male,highly skilled,own,little,moderate,radio/TV
57,female,skilled,own,little,little,radio/TV
58,female,highly skilled,own,little,rich,car
59,female,unskilled and resident,rent,little,little,furniture/equipment
60,male,skilled,own,little,moderate,business
61,male,skilled,own,little,moderate,radio/TV
62,male,highly skilled,free,little,moderate,business
63,male,skilled,own,little,moderate,business
64,female,skilled,own,little,little,radio/TV
65,male,skilled,own,little,little,repairs
66,female,skilled,own,little,little,radio/TV
67,male,skilled,own,rich,moderate,car
68,male,skilled,free,little,little,education
69,female,skilled,own,little,little,radio/TV
70,female,skilled,own,little,little,car
71,male,unskilled and resident,rent,little,little,radio/TV
72,male,highly skilled,free,little,little,vacation/others
73,female,unskilled and resident,own,little,moderate,business
74,male,highly skilled,own,little,little,education
75,male,highly skilled,free,little,little,car
76,male,skilled,own,little,little,radio/TV
77,male,skilled,own,little,moderate,radio/TV
78,male,unskilled and resident,own,little,little,car
79,male,skilled,own,little,moderate,furniture/equipment
80,female,skilled,own,little,little,radio/TV
81,male,skilled,own,quite rich,little,radio/TV
82,female,unskilled and resident,rent,moderate,little,business
83,female,unskilled and resident,own,little,little,vacation/others
84,male,unskilled and resident,own,little,little,radio/TV
85,female,highly skilled,own,little,little,business
86,female,skilled,own,little,moderate,furniture/equipment
87,male,skilled,free,moderate,moderate,education
88,male,highly skilled,own,moderate,little,car
89,male,skilled,own,little,little,repairs
90,male,skilled,own,little,little,radio/TV
91,male,skilled,own,little,little,car
92,female,unskilled and resident,own,little,little,radio/TV
93,male,skilled,rent,little,rich,furniture/equipment
94,male,skilled,own,rich,moderate,car
95,male,skilled,rent,little,moderate,business
96,female,skilled,own,little,little,education
97,male,skilled,own,moderate,moderate,business
98,male,skilled,own,little,moderate,radio/TV
99,male,highly skilled,rent,little,moderate,car
100,male,unskilled and resident,rent,moderate,little,car
101,male,skilled,rent,little,moderate,radio/TV
102,female,skilled,own,little,little,radio/TV
103,male,skilled,rent,little,moderate,furniture/equipment
104,male,skilled,rent,little,little,car
105,male,highly skilled,own,little,moderate,vacation/others
106,male,highly skilled,own,little,little,car
107,male,skilled,own,little,moderate,car
108,female,skilled,own,little,little,furniture/equipment
109,male,skilled,own,quite rich,moderate,business
110,male,skilled,own,moderate,moderate,business
111,female,skilled,rent,little,rich,education
112,male,unskilled and resident,rent,little,moderate,car
113,female,skilled,own,little,little,car
114,male,skilled,own,quite rich,little,radio/TV
115,male,skilled,own,little,little,radio/TV
116,female,highly skilled,own,little,little,radio/TV
117,female,skilled,rent,little,little,furniture/equipment
118,female,skilled,own,quite rich,little,furniture/equipment
119,male,highly skilled,own,quite rich,moderate,car
120,female,skilled,own,little,little,radio/TV
121,female,highly skilled,rent,little,little,car
122,male,unskilled and resident,rent,little,little,furniture/equipment
123,male,skilled,free,little,rich,car
124,female,skilled,rent,little,moderate,furniture/equipment
125,male,skilled,own,little,little,car
126,male,unskilled and resident,own,little,little,radio/TV
127,male,skilled,own,little,moderate,repairs
128,male,highly skilled,own,little,moderate,car
129,female,skilled,own,little,little,car
130,female,skilled,own,little,moderate,car
131,male,skilled,own,little,little,education
132,male,unskilled and resident,own,little,little,furniture/equipment
133,male,skilled,free,little,little,furniture/equipment
134,female,skilled,own,moderate,little,radio/TV
135,female,skilled,own,little,little,radio/TV
136,male,skilled,own,rich,little,car
137,male,unskilled and resident,own,quite rich,moderate,radio/TV
138,male,skilled,own,little,moderate,radio/TV
139,female,unskilled and resident,rent,little,rich,radio/TV
140,male,unskilled and non-resident,own,rich,rich,car
141,female,highly skilled,own,little,moderate,radio/TV
142,male,highly skilled,own,little,little,radio/TV
143,male,skilled,own,little,little,furniture/equipment
144,female,skilled,own,little,little,furniture/equipment
145,male,skilled,own,moderate,moderate,business
146,female,skilled,own,little,little,car
147,female,skilled,own,moderate,little,car
148,male,skilled,own,little,little,furniture/equipment
149,male,skilled,own,rich,little,radio/TV
150,male,skilled,free,moderate,little,radio/TV
151,male,skilled,own,little,little,radio/TV
152,male,skilled,own,little,rich,radio/TV
153,female,skilled,rent,rich,moderate,car
154,male,highly skilled,rent,moderate,moderate,business
155,female,skilled,rent,little,little,furniture/equipment
156,male,skilled,own,moderate,little,repairs
157,male,unskilled and resident,own,little,little,education
158,male,skilled,own,moderate,moderate,car
159,male,unskilled and resident,own,little,little,radio/TV
160,male,skilled,own,moderate,little,radio/TV
161,female,skilled,own,little,little,car
162,male,skilled,own,quite rich,little,domestic appliances
163,male,highly skilled,free,little,moderate,car
164,male,skilled,own,quite rich,little,car
165,male,skilled,own,quite rich,little,furniture/equipment
166,female,skilled,own,little,little,furniture/equipment
167,female,skilled,own,rich,moderate,furniture/equipment
168,female,skilled,rent,little,little,furniture/equipment
169,male,skilled,own,little,moderate,business
170,male,skilled,rent,little,little,car
171,female,skilled,own,little,little,furniture/equipment
172,female,highly skilled,own,little,moderate,furniture/equipment
173,male,skilled,own,little,moderate,radio/TV
174,male,skilled,own,little,little,education
175,female,highly skilled,own,little,little,car
176,male,skilled,own,little,little,furniture/equipment
177,male,skilled,own,quite rich,little,radio/TV
178,male,highly skilled,rent,little,little,radio/TV
179,male,skilled,own,little,little,car
180,male,skilled,own,little,little,business
181,male,highly skilled,own,little,moderate,business
182,male,unskilled and resident,own,little,little,car
183,male,skilled,own,rich,little,furniture/equipment
184,male,skilled,own,little,moderate,car
185,male,skilled,own,little,little,radio/TV
186,female,highly skilled,free,little,moderate,car
187,male,unskilled and non-resident,free,little,moderate,car
188,male,skilled,own,moderate,little,radio/TV
189,female,skilled,own,little,moderate,furniture/equipment
190,male,highly skilled,own,rich,little,business
191,male,unskilled and resident,free,moderate,moderate,business
192,male,skilled,own,little,moderate,business
193,male,skilled,rent,little,little,radio/TV
194,male,skilled,rent,moderate,moderate,radio/TV
195,female,highly skilled,own,little,moderate,education
196,female,skilled,own,little,little,radio/TV
197,female,skilled,rent,moderate,moderate,furniture/equipment
198,male,skilled,free,little,moderate,car
199,male,highly skilled,own,little,moderate,furniture/equipment
200,male,skilled,own,quite rich,little,education
201,male,unskilled and resident,own,little,little,car
202,male,skilled,own,little,little,business
203,male,skilled,rent,little,little,education
204,male,unskilled and resident,own,little,little,car
205,male,highly skilled,free,little,little,car
206,male,skilled,own,little,little,furniture/equipment
207,male,skilled,own,little,moderate,domestic appliances
208,male,unskilled and resident,own,little,little,business
209,male,skilled,own,rich,little,car
210,male,skilled,own,little,little,radio/TV
211,female,unskilled and resident,own,little,little,radio/TV
212,male,skilled,own,little,little,business
213,male,highly skilled,own,little,rich,business
214,male,skilled,own,little,little,radio/TV
215,female,unskilled and resident,own,little,moderate,education
216,male,skilled,own,little,little,business
217,male,skilled,own,little,rich,radio/TV
218,male,unskilled and resident,rent,little,little,furniture/equipment
219,female,skilled,own,little,little,car
220,male,unskilled and resident,own,little,moderate,radio/TV
221,female,skilled,rent,little,little,education
222,male,skilled,own,little,little,radio/TV
223,male,skilled,own,little,little,business
224,male,skilled,own,little,little,car
225,male,skilled,own,little,little,repairs
226,male,skilled,own,rich,moderate,radio/TV
227,male,highly skilled,free,little,little,furniture/equipment
228,male,skilled,own,little,little,radio/TV
229,male,skilled,free,little,little,furniture/equipment
230,male,skilled,own,little,rich,radio/TV
231,male,unskilled and resident,free,quite rich,little,car
232,male,skilled,own,moderate,little,radio/TV
233,male,unskilled and resident,own,little,moderate,radio/TV
234,male,unskilled and resident,own,little,little,radio/TV
235,male,highly skilled,own,little,little,radio/TV
236,male,unskilled and non-resident,own,little,moderate,car
237,male,unskilled and resident,rent,moderate,moderate,business
238,female,skilled,own,little,little,radio/TV
239,male,skilled,own,little,little,radio/TV
240,female,skilled,own,little,little,car
241,male,skilled,own,little,little,radio/TV
242,male,skilled,free,little,little,car
243,female,skilled,own,little,little,business
244,female,unskilled and resident,own,quite rich,little,education
245,male,skilled,own,little,little,business
246,male,skilled,own,little,little,radio/TV
247,male,skilled,rent,moderate,little,car
248,male,skilled,own,little,rich,furniture/equipment
249,female,skilled,rent,little,little,radio/TV
250,female,unskilled and resident,own,rich,little,car
251,female,unskilled and resident,own,little,rich,furniture/equipment
252,female,skilled,own,little,moderate,car
253,male,skilled,own,moderate,little,furniture/equipment
254,male,skilled,own,little,moderate,furniture/equipment
255,male,unskilled and resident,own,little,moderate,radio/TV
256,male,unskilled and resident,own,little,little,radio/TV
257,male,skilled,free,little,little,radio/TV
258,female,skilled,own,moderate,little,car
259,female,unskilled and resident,own,moderate,little,radio/TV
260,male,skilled,own,little,little,furniture/equipment
261,female,skilled,own,little,little,radio/TV
262,male,highly skilled,free,little,little,car
263,female,unskilled and resident,free,little,little,education
264,male,unskilled and resident,own,little,little,car
265,male,skilled,own,little,moderate,radio/TV
266,male,skilled,own,little,little,business
267,female,skilled,own,little,little,radio/TV
268,male,highly skilled,own,little,little,car
269,male,skilled,own,little,little,radio/TV
270,male,skilled,own,little,little,car
271,female,skilled,rent,quite rich,little,furniture/equipment
272,male,highly skilled,free,little,moderate,car
273,male,skilled,own,little,moderate,radio/TV
274,male,unskilled and resident,own,little,little,repairs
275,male,skilled,own,little,little,radio/TV
276,female,skilled,own,little,little,radio/TV
277,male,unskilled and resident,own,little,little,furniture/equipment
278,female,skilled,own,little,little,furniture/equipment
279,male,highly skilled,rent,moderate,little,radio/TV
280,male,skilled,rent,rich,little,car
281,male,skilled,own,little,little,furniture/equipment
282,male,unskilled and resident,own,little,rich,radio/TV
283,male,skilled,own,little,little,furniture/equipment
284,male,skilled,own,moderate,moderate,car
285,female,unskilled and resident,own,little,little,car
286,male,skilled,own,little,little,car
287,male,highly skilled,free,moderate,moderate,vacation/others
288,female,skilled,own,little,moderate,radio/TV
289,male,skilled,own,little,little,radio/TV
290,male,skilled,own,little,little,business
291,male,highly skilled,rent,little,moderate,car
292,female,highly skilled,free,little,little,car
293,male,skilled,free,little,rich,car
294,male,highly skilled,own,little,little,business
295,female,skilled,own,little,moderate,furniture/equipment
296,female,skilled,rent,little,little,car
297,male,unskilled and resident,own,little,little,car
298,male,skilled,own,little,little,furniture/equipment
299,male,skilled,own,rich,moderate,furniture/equipment
300,female,unskilled and non-resident,own,little,little,car
301,female,skilled,own,little,moderate,radio/TV
302,male,unskilled and resident,own,little,rich,car
303,male,skilled,own,little,little,car
304,male,skilled,free,quite rich,little,car
305,male,skilled,own,rich,little,furniture/equipment
306,female,unskilled and resident,rent,little,little,car
307,male,unskilled and resident,own,moderate,little,radio/TV
308,female,skilled,own,little,moderate,furniture/equipment
309,male,unskilled and resident,rent,little,moderate,car
310,male,unskilled and non-resident,free,little,moderate,vacation/others
311,male,skilled,own,moderate,little,furniture/equipment
312,female,skilled,own,little,rich,furniture/equipment
313,male,unskilled and resident,own,little,moderate,car
314,male,unskilled and resident,own,little,rich,car
315,male,skilled,own,little,little,furniture/equipment
316,male,unskilled and resident,own,little,little,furniture/equipment
317,female,unskilled and resident,own,little,moderate,furniture/equipment
318,male,skilled,own,little,little,education
319,female,unskilled and resident,own,little,little,furniture/equipment
320,male,highly skilled,own,little,moderate,car
321,male,skilled,own,little,little,radio/TV
322,male,highly skilled,free,little,little,car
323,male,skilled,own,rich,little,furniture/equipment
324,female,skilled,own,little,little,car
325,male,unskilled and resident,own,little,little,car
326,male,skilled,rent,little,little,furniture/equipment
327,female,skilled,own,rich,little,car
328,male,skilled,own,little,rich,radio/TV
329,male,skilled,own,little,moderate,radio/TV
330,male,highly skilled,free,little,little,car
331,female,skilled,own,moderate,little,education
332,female,highly skilled,own,moderate,moderate,car
333,female,unskilled and resident,rent,moderate,little,car
334,male,skilled,rent,little,little,furniture/equipment
335,male,highly skilled,rent,little,little,furniture/equipment
336,female,unskilled and resident,own,little,moderate,radio/TV
337,female,skilled,rent,little,little,domestic appliances
338,male,skilled,own,little,little,furniture/equipment
339,male,unskilled and resident,own,little,moderate,furniture/equipment
340,female,skilled,free,little,moderate,education
341,female,unskilled and resident,rent,little,little,furniture/equipment
342,male,skilled,rent,quite rich,moderate,radio/TV
343,male,highly skilled,own,little,moderate,business
344,male,unskilled and resident,own,little,rich,car
345,female,unskilled and resident,own,little,little,radio/TV
346,male,skilled,own,little,moderate,radio/TV
347,female,unskilled and non-resident,rent,quite rich,moderate,radio/TV
348,male,unskilled and resident,own,moderate,little,business
349,male,skilled,free,rich,moderate,education
350,female,skilled,rent,little,little,domestic appliances
351,female,skilled,own,little,moderate,furniture/equipment
352,male,highly skilled,own,little,little,car
353,male,skilled,rent,little,little,radio/TV
354,male,skilled,free,quite rich,little,education
355,male,unskilled and resident,own,little,moderate,car
356,male,skilled,own,little,little,radio/TV
357,male,highly skilled,own,little,little,radio/TV
358,male,skilled,own,little,little,radio/TV
359,female,skilled,rent,little,little,furniture/equipment
360,male,skilled,free,little,moderate,education
361,male,highly skilled,own,little,rich,radio/TV
362,female,skilled,own,little,rich,car
363,male,skilled,rent,little,little,furniture/equipment
364,male,unskilled and non-resident,own,little,little,furniture/equipment
365,male,skilled,own,little,little,business
366,male,skilled,own,little,little,car
367,female,skilled,rent,little,little,furniture/equipment
368,male,skilled,own,little,little,furniture/equipment
369,female,skilled,rent,little,moderate,furniture/equipment
370,male,skilled,own,little,little,car
371,male,skilled,own,little,little,radio/TV
372,female,skilled,rent,little,little,furniture/equipment
373,male,highly skilled,free,little,little,car
374,female,highly skilled,free,moderate,moderate,vacation/others
375,female,skilled,rent,little,little,business
376,male,skilled,own,little,little,radio/TV
377,male,skilled,free,little,little,radio/TV
378,male,highly skilled,free,little,moderate,car
379,female,unskilled and resident,own,moderate,little,car
380,male,skilled,own,little,little,furniture/equipment
381,female,highly skilled,free,little,moderate,car
382,female,skilled,rent,little,little,car
383,male,skilled,own,little,rich,car
384,male,unskilled and resident,own,moderate,little,business
385,female,skilled,own,little,little,radio/TV
386,female,skilled,rent,little,little,radio/TV
387,male,highly skilled,own,little,moderate,furniture/equipment
388,male,skilled,own,quite rich,moderate,business
389,female,skilled,own,little,little,business
390,male,highly skilled,own,little,little,car
391,female,unskilled and resident,rent,rich,moderate,furniture/equipment
392,male,highly skilled,free,little,little,car
393,female,skilled,own,little,little,radio/TV
394,male,highly skilled,own,little,little,furniture/equipment
395,male,skilled,rent,moderate,moderate,education
396,female,highly skilled,free,little,little,furniture/equipment
397,male,skilled,own,little,little,furniture/equipment
398,male,skilled,rent,little,moderate,car
399,female,unskilled and resident,own,rich,little,radio/TV
400,male,skilled,own,little,little,radio/TV
401,male,skilled,own,little,moderate,business
402,male,skilled,own,little,little,business
403,male,unskilled and resident,own,little,little,car
404,male,skilled,own,little,moderate,car
405,male,skilled,own,little,moderate,radio/TV
406,male,skilled,own,little,little,car
407,male,skilled,own,little,little,radio/TV
408,male,highly skilled,own,quite rich,little,radio/TV
409,male,skilled,own,quite rich,rich,car
410,female,skilled,own,little,moderate,radio/TV
411,male,highly skilled,own,little,little,car
412,male,highly skilled,own,little,little,business
413,male,unskilled and resident,rent,quite rich,little,car
414,female,skilled,own,little,little,car
415,male,skilled,own,little,little,car
416,male,unskilled and resident,own,little,little,car
417,female,skilled,rent,little,little,education
418,female,highly skilled,own,quite rich,little,car
419,female,skilled,own,little,moderate,car
420,female,skilled,rent,rich,little,car
421,male,skilled,own,little,moderate,car
422,male,unskilled and resident,own,little,moderate,car
423,male,highly skilled,own,moderate,little,furniture/equipment
424,female,skilled,own,little,moderate,furniture/equipment
425,male,skilled,rent,little,moderate,car
426,male,skilled,own,little,little,radio/TV
427,male,skilled,own,rich,little,radio/TV
428,male,skilled,own,little,little,furniture/equipment
429,female,unskilled and non-resident,free,little,little,repairs
430,male,unskilled and resident,own,little,little,business
431,male,highly skilled,own,little,moderate,vacation/others
432,male,highly skilled,free,little,little,furniture/equipment
433,male,skilled,own,little,little,repairs
434,male,skilled,own,little,little,furniture/equipment
435,male,skilled,own,little,moderate,radio/TV
436,male,unskilled and resident,rent,quite rich,little,repairs
437,female,skilled,own,rich,little,car
438,male,unskilled and non-resident,own,little,little,repairs
439,female,unskilled and non-resident,own,little,rich,business
440,male,highly skilled,own,little,little,car
441,female,skilled,own,little,little,furniture/equipment
442,male,skilled,own,little,moderate,vacation/others
443,male,unskilled and resident,own,little,little,education
444,female,highly skilled,own,little,moderate,furniture/equipment
445,female,unskilled and resident,rent,little,little,education
446,female,skilled,own,little,little,car
447,male,skilled,own,little,moderate,radio/TV
448,female,highly skilled,own,little,rich,furniture/equipment
449,male,skilled,own,rich,moderate,repairs
450,male,highly skilled,own,little,little,car
451,female,skilled,own,little,little,radio/TV
452,male,skilled,own,little,little,furniture/equipment
453,male,highly skilled,own,little,little,car
454,male,skilled,own,little,little,car
455,female,highly skilled,own,little,little,car
456,male,skilled,rent,little,little,car
457,male,skilled,free,little,little,car
458,female,skilled,own,little,little,domestic appliances
459,male,skilled,own,little,little,radio/TV
460,male,skilled,own,little,little,furniture/equipment
461,male,skilled,own,little,little,car
462,female,highly skilled,rent,little,moderate,furniture/equipment
463,male,skilled,own,little,moderate,education
464,male,skilled,own,little,little,business
465,male,skilled,own,little,little,car
466,female,unskilled and resident,rent,little,little,radio/TV
467,male,skilled,own,little,little,radio/TV
468,female,skilled,own,little,little,business
469,male,unskilled and resident,own,little,little,car
470,male,skilled,rent,moderate,moderate,radio/TV
471,female,skilled,own,little,little,education
472,male,unskilled and resident,own,little,little,car
473,male,highly skilled,own,little,little,education
474,male,skilled,own,little,moderate,radio/TV
475,female,skilled,rent,little,little,furniture/equipment
476,male,skilled,own,quite rich,little,car
477,male,skilled,own,little,rich,radio/TV
478,male,unskilled and resident,own,moderate,moderate,business
479,male,skilled,own,little,little,furniture/equipment
480,female,unskilled and resident,own,little,moderate,radio/TV
481,male,skilled,own,little,moderate,car
482,female,skilled,rent,rich,little,furniture/equipment
483,female,skilled,own,rich,little,furniture/equipment
484,male,skilled,own,quite rich,little,car
485,male,highly skilled,own,little,moderate,car
486,male,skilled,own,little,little,radio/TV
487,female,skilled,free,little,little,car
488,male,unskilled and resident,rent,moderate,little,car
489,male,skilled,rent,little,little,car
490,male,skilled,own,little,little,radio/TV
491,female,highly skilled,free,little,moderate,business
492,female,skilled,own,moderate,little,radio/TV
493,male,skilled,own,little,moderate,radio/TV
494,male,unskilled and resident,rent,little,little,car
495,male,skilled,own,little,little,furniture/equipment
496,male,highly skilled,rent,moderate,moderate,furniture/equipment
497,male,skilled,own,little,little,furniture/equipment
498,male,unskilled and resident,own,little,moderate,radio/TV
499,male,skilled,own,moderate,rich,car
500,female,skilled,own,little,little,car
501,male,skilled,free,little,little,car
502,male,skilled,own,moderate,rich,radio/TV
503,male,skilled,own,moderate,moderate,radio/TV
504,female,skilled,rent,little,little,car
505,male,unskilled and resident,own,little,little,car
506,male,skilled,own,quite rich,rich,car
507,male,highly skilled,own,moderate,moderate,car
508,male,skilled,own,little,little,radio/TV
509,male,highly skilled,own,moderate,little,car
510,male,skilled,own,little,little,car
511,male,highly skilled,free,little,little,car
512,male,skilled,rent,little,rich,business
513,male,skilled,rent,little,moderate,radio/TV
514,male,skilled,own,little,little,car
515,female,skilled,own,little,little,car
516,male,unskilled and resident,own,little,little,car
517,female,skilled,rent,little,little,furniture/equipment
518,male,skilled,own,moderate,little,car
519,male,skilled,free,little,little,radio/TV
520,male,skilled,free,little,little,repairs
521,female,skilled,own,little,little,radio/TV
522,male,skilled,free,little,little,furniture/equipment
523,female,skilled,own,moderate,little,car
524,female,unskilled and resident,own,little,moderate,radio/TV
525,male,skilled,own,little,moderate,car
526,female,skilled,own,moderate,little,education
527,male,unskilled and resident,own,little,little,radio/TV
528,male,skilled,rent,little,little,radio/TV
529,male,unskilled and resident,own,little,little,car
530,male,skilled,own,little,moderate,education
531,female,skilled,rent,moderate,moderate,car
532,male,skilled,rent,little,little,car
533,male,skilled,own,moderate,little,radio/TV
534,male,skilled,own,little,little,radio/TV
535,male,skilled,rent,little,rich,education
536,female,highly skilled,own,little,little,car
537,female,skilled,own,little,moderate,furniture/equipment
538,male,highly skilled,free,little,little,car
539,female,unskilled and resident,own,little,rich,furniture/equipment
540,male,skilled,rent,little,moderate,radio/TV
541,male,skilled,free,little,little,car
542,male,skilled,own,little,little,furniture/equipment
543,male,unskilled and resident,own,little,rich,furniture/equipment
544,male,unskilled and resident,own,little,little,car
545,male,skilled,free,little,little,car
546,female,skilled,own,little,little,car
547,male,skilled,own,little,little,radio/TV
548,female,unskilled and resident,own,little,little,radio/TV
549,male,skilled,free,little,little,car
550,female,skilled,own,little,little,repairs
551,male,unskilled and resident,own,quite rich,little,radio/TV
552,male,skilled,own,little,little,radio/TV
553,male,skilled,own,moderate,moderate,car
554,female,highly skilled,own,little,moderate,education
555,male,skilled,own,little,moderate,radio/TV
556,female,skilled,own,moderate,moderate,car
557,female,skilled,own,little,little,car
558,male,skilled,own,little,little,furniture/equipment
559,male,unskilled and resident,own,little,moderate,furniture/equipment
560,male,skilled,free,little,little,car
561,male,unskilled and resident,rent,little,little,radio/TV
562,female,skilled,own,little,rich,radio/TV
563,male,skilled,free,little,moderate,car
564,male,highly skilled,own,little,moderate,business
565,female,skilled,rent,moderate,moderate,radio/TV
566,male,skilled,own,little,little,car
567,male,skilled,own,rich,little,radio/TV
568,male,skilled,own,little,moderate,radio/TV
569,female,skilled,own,little,little,radio/TV
570,female,unskilled and resident,rent,little,little,furniture/equipment
571,male,skilled,own,little,little,radio/TV
572,female,highly skilled,rent,little,little,car
573,female,unskilled and resident,own,little,little,business
574,male,unskilled and resident,own,little,moderate,radio/TV
575,female,skilled,own,little,little,furniture/equipment
576,female,skilled,own,little,moderate,radio/TV
577,female,skilled,own,little,little,education
578,male,skilled,own,little,moderate,car
579,male,unskilled and resident,own,little,little,education
580,male,skilled,own,little,moderate,car
581,male,unskilled and resident,own,little,moderate,car
582,female,skilled,rent,little,little,furniture/equipment
583,male,unskilled and resident,rent,little,moderate,repairs
584,female,highly skilled,free,little,little,car
585,female,skilled,rent,little,little,furniture/equipment
586,male,skilled,rent,little,little,car
587,male,unskilled and resident,own,little,little,furniture/equipment
588,male,unskilled and resident,own,little,little,domestic appliances
589,male,skilled,own,little,little,furniture/equipment
590,female,unskilled and resident,own,little,little,radio/TV
591,female,skilled,rent,little,moderate,car
592,female,unskilled and resident,own,rich,little,business
593,female,unskilled and resident,rent,little,moderate,car
594,male,highly skilled,own,little,little,vacation/others
595,female,unskilled and resident,own,moderate,moderate,car
596,female,skilled,rent,little,little,car
597,male,unskilled and resident,own,little,moderate,business
598,male,skilled,own,little,little,car
599,male,skilled,free,little,little,business
600,female,skilled,own,little,moderate,radio/TV
601,female,skilled,own,little,moderate,furniture/equipment
602,female,unskilled and resident,free,little,moderate,education
603,female,highly skilled,own,little,little,furniture/equipment
604,female,skilled,own,little,rich,furniture/equipment
605,male,skilled,own,quite rich,little,furniture/equipment
606,male,highly skilled,own,little,little,business
607,female,skilled,free,moderate,moderate,radio/TV
608,male,skilled,own,little,little,radio/TV
609,male,skilled,free,little,little,car
610,female,skilled,own,moderate,little,domestic appliances
611,female,unskilled and resident,free,moderate,rich,car
612,female,skilled,own,rich,little,radio/TV
613,female,skilled,rent,little,little,car
614,female,skilled,own,little,little,furniture/equipment
615,male,highly skilled,own,little,moderate,business
616,male,highly skilled,free,little,moderate,radio/TV
617,male,skilled,rent,little,little,car
618,female,skilled,rent,moderate,moderate,furniture/equipment
619,male,unskilled and resident,own,little,little,car
620,male,skilled,own,little,moderate,business
621,male,skilled,own,little,little,car
622,male,skilled,own,little,little,business
623,female,skilled,rent,little,little,furniture/equipment
624,male,skilled,free,little,little,radio/TV
625,male,skilled,own,little,little,radio/TV
626,male,skilled,own,little,rich,furniture/equipment
627,male,skilled,own,moderate,moderate,car
628,male,skilled,own,quite rich,little,furniture/equipment
629,male,unskilled and resident,own,little,little,education
630,female,skilled,own,little,little,radio/TV
631,male,skilled,own,little,little,furniture/equipment
632,male,skilled,own,little,moderate,radio/TV
633,female,skilled,rent,little,little,furniture/equipment
634,female,unskilled and resident,own,little,moderate,car
635,male,skilled,own,little,little,education
636,female,skilled,own,quite rich,little,radio/TV
637,male,skilled,own,little,little,radio/TV
638,female,skilled,own,little,little,radio/TV
639,male,skilled,own,little,little,radio/TV
640,female,unskilled and non-resident,own,little,little,education
641,male,unskilled and resident,own,little,moderate,repairs
642,male,highly skilled,own,moderate,little,education
643,male,skilled,own,little,little,radio/TV
644,male,highly skilled,own,little,little,radio/TV
645,male,skilled,rent,little,little,business
646,male,skilled,own,little,little,furniture/equipment
647,female,skilled,own,quite rich,little,car
648,male,skilled,free,little,rich,car
649,male,unskilled and resident,rent,little,little,education
650,male,highly skilled,free,little,little,education
651,male,unskilled and resident,own,little,moderate,furniture/equipment
652,male,skilled,own,little,little,car
653,male,highly skilled,own,moderate,moderate,car
654,male,skilled,own,little,little,car
655,male,skilled,free,little,little,car
656,male,unskilled and resident,own,little,moderate,car
657,male,skilled,own,little,little,radio/TV
658,female,skilled,own,little,moderate,business
659,male,skilled,own,little,moderate,furniture/equipment
660,male,skilled,rent,little,rich,radio/TV
661,male,skilled,own,little,little,car
662,male,skilled,own,little,little,furniture/equipment
663,male,highly skilled,own,little,moderate,furniture/equipment
664,female,unskilled and resident,own,little,rich,education
665,male,highly skilled,own,little,little,vacation/others
666,male,skilled,own,rich,moderate,furniture/equipment
667,female,skilled,own,little,little,business
668,male,skilled,rent,little,little,car
669,male,skilled,own,little,rich,radio/TV
670,male,unskilled and resident,own,moderate,little,business
671,male,skilled,own,moderate,little,business
672,male,highly skilled,own,little,little,car
673,male,skilled,own,quite rich,little,car
674,male,unskilled and resident,own,quite rich,little,business
675,female,highly skilled,rent,little,little,radio/TV
676,male,skilled,own,little,little,furniture/equipment
677,male,skilled,own,moderate,moderate,radio/TV
678,male,unskilled and resident,rent,little,little,radio/TV
679,female,skilled,own,little,little,radio/TV
680,female,skilled,own,little,little,education
681,male,skilled,free,little,little,radio/TV
682,male,skilled,own,little,little,radio/TV
683,male,skilled,free,little,little,radio/TV
684,male,unskilled and resident,own,moderate,moderate,business
685,male,skilled,free,little,little,car
686,male,skilled,own,little,rich,radio/TV
687,male,skilled,free,moderate,moderate,car
688,male,skilled,own,moderate,little,radio/TV
689,male,skilled,own,rich,little,car
690,male,skilled,own,little,little,furniture/equipment
691,female,unskilled and resident,own,moderate,moderate,repairs
692,male,skilled,own,moderate,moderate,radio/TV
693,male,unskilled and resident,own,little,little,car
694,male,skilled,own,little,little,radio/TV
695,male,skilled,rent,quite rich,little,car
696,male,skilled,own,little,moderate,radio/TV
697,female,unskilled and non-resident,own,little,little,car
698,male,skilled,own,little,little,radio/TV
699,male,highly skilled,rent,little,rich,education
700,female,unskilled and resident,rent,quite rich,little,furniture/equipment
701,male,skilled,free,little,little,car
702,female,skilled,free,moderate,rich,radio/TV
703,male,skilled,own,moderate,moderate,business
704,female,skilled,own,little,moderate,business
705,female,skilled,free,quite rich,little,car
706,male,skilled,own,moderate,moderate,car
707,female,skilled,rent,little,moderate,furniture/equipment
708,female,skilled,own,little,moderate,radio/TV
709,male,unskilled and resident,own,little,moderate,radio/TV
710,male,highly skilled,own,quite rich,little,radio/TV
711,female,skilled,free,little,little,education
712,male,highly skilled,own,little,little,car
713,male,unskilled and resident,own,little,little,radio/TV
714,male,highly skilled,own,little,moderate,car
715,male,skilled,own,little,little,car
716,male,skilled,own,little,little,radio/TV
717,male,highly skilled,free,little,little,radio/TV
718,male,skilled,own,little,rich,radio/TV
719,male,skilled,own,moderate,moderate,car
720,male,highly skilled,own,little,rich,radio/TV
721,female,skilled,rent,rich,moderate,education
722,female,unskilled and resident,own,little,little,car
723,female,unskilled and resident,own,quite rich,moderate,radio/TV
724,female,skilled,rent,little,little,car
725,female,unskilled and resident,own,rich,little,car
726,male,unskilled and resident,own,quite rich,little,radio/TV
727,female,skilled,rent,little,little,radio/TV
728,female,skilled,rent,little,moderate,business
729,male,skilled,own,rich,rich,business
730,male,skilled,own,little,moderate,radio/TV
731,male,unskilled and resident,rent,little,little,radio/TV
732,female,unskilled and resident,own,little,moderate,radio/TV
733,female,skilled,rent,rich,little,car
734,female,skilled,own,little,little,car
735,female,unskilled and non-resident,own,little,moderate,domestic appliances
736,female,highly skilled,rent,little,moderate,car
737,male,unskilled and resident,own,moderate,little,car
738,male,highly skilled,own,little,little,car
739,female,unskilled and resident,rent,moderate,moderate,business
740,male,skilled,own,moderate,little,car
741,male,unskilled and resident,own,little,moderate,radio/TV
742,male,skilled,own,little,little,radio/TV
743,male,skilled,own,quite rich,little,furniture/equipment
744,male,highly skilled,own,little,little,furniture/equipment
745,male,unskilled and resident,own,little,little,business
746,female,skilled,rent,little,little,car
747,female,unskilled and resident,own,little,little,car
748,male,skilled,own,little,little,car
749,male,skilled,own,little,little,car
750,female,skilled,own,little,little,furniture/equipment
751,female,unskilled and resident,own,little,little,car
752,female,unskilled and resident,rent,moderate,moderate,business
753,female,skilled,own,little,little,radio/TV
754,male,skilled,free,rich,little,repairs
755,female,skilled,rent,little,little,car
756,male,unskilled and non-resident,own,little,rich,car
757,male,skilled,free,little,rich,radio/TV
758,male,skilled,own,little,little,car
759,male,skilled,own,little,little,car
760,female,skilled,own,little,little,car
761,female,skilled,rent,little,little,furniture/equipment
762,male,unskilled and resident,own,little,little,radio/TV
763,male,highly skilled,free,little,little,car
764,male,skilled,own,moderate,little,car
765,male,unskilled and resident,own,little,moderate,radio/TV
766,male,unskilled and resident,own,little,little,furniture/equipment
767,female,skilled,rent,little,little,car
768,male,skilled,rent,little,moderate,furniture/equipment
769,male,unskilled and resident,own,little,little,radio/TV
770,female,skilled,rent,little,little,car
771,female,highly skilled,own,little,little,education
772,male,highly skilled,own,little,little,car
773,male,skilled,own,moderate,little,radio/TV
774,male,unskilled and non-resident,free,quite rich,rich,car
775,female,skilled,rent,little,little,car
776,male,skilled,own,little,little,car
777,female,skilled,own,little,little,radio/TV
778,male,highly skilled,own,rich,little,car
779,female,skilled,own,little,moderate,repairs
780,male,skilled,own,little,moderate,radio/TV
781,male,skilled,own,rich,little,car
782,male,unskilled and resident,own,little,moderate,education
783,female,unskilled and resident,own,moderate,moderate,car
784,male,highly skilled,own,little,moderate,car
785,male,unskilled and resident,own,rich,moderate,business
786,male,skilled,own,quite rich,little,radio/TV
787,male,skilled,own,little,little,car
788,male,skilled,free,little,moderate,education
789,male,skilled,own,little,little,education
790,female,skilled,own,little,moderate,business
791,male,highly skilled,own,little,little,car
792,male,skilled,own,little,little,furniture/equipment
793,male,skilled,free,little,rich,furniture/equipment
794,male,skilled,rent,quite rich,little,furniture/equipment
795,female,skilled,rent,moderate,little,furniture/equipment
796,male,skilled,free,little,little,car
797,female,unskilled and resident,rent,little,little,furniture/equipment
798,male,skilled,own,little,little,car
799,male,unskilled and non-resident,own,little,moderate,car
800,male,skilled,free,little,little,education
801,female,unskilled and resident,rent,little,moderate,radio/TV
802,female,skilled,own,little,little,furniture/equipment
803,male,skilled,own,little,little,radio/TV
804,female,unskilled and non-resident,rent,little,moderate,car
805,male,skilled,own,little,little,car
806,male,unskilled and resident,own,little,moderate,radio/TV
807,male,skilled,own,little,little,radio/TV
808,male,highly skilled,free,little,moderate,car
809,female,unskilled and non-resident,rent,little,moderate,car
810,male,skilled,own,little,moderate,business
811,male,unskilled and resident,own,little,moderate,radio/TV
812,male,skilled,own,little,little,car
813,male,skilled,own,little,little,domestic appliances
814,male,skilled,free,little,little,car
815,female,skilled,rent,little,moderate,car
816,male,skilled,own,quite rich,little,domestic appliances
817,female,skilled,rent,little,little,radio/TV
818,male,highly skilled,own,little,little,vacation/others
819,male,skilled,own,little,little,radio/TV
820,male,skilled,own,little,little,car
821,male,skilled,own,little,rich,radio/TV
822,male,skilled,own,little,little,furniture/equipment
823,male,unskilled and resident,own,little,little,car
824,male,highly skilled,own,little,little,furniture/equipment
825,male,skilled,own,little,little,car
826,female,skilled,rent,little,little,car
827,male,skilled,own,little,little,business
828,male,skilled,free,little,little,car
829,male,skilled,free,little,moderate,business
830,male,skilled,own,quite rich,little,business
831,female,skilled,rent,little,little,car
832,male,skilled,rent,little,little,business
833,female,skilled,own,little,moderate,radio/TV
834,female,unskilled and resident,own,little,rich,radio/TV
835,male,skilled,own,little,little,car
836,female,skilled,own,little,little,radio/TV
837,female,unskilled and resident,rent,little,little,furniture/equipment
838,male,skilled,own,little,little,car
839,male,skilled,own,little,little,radio/TV
840,male,skilled,own,little,little,furniture/equipment
841,male,unskilled and resident,own,little,little,car
842,female,skilled,own,little,little,repairs
843,male,skilled,own,little,little,business
844,male,skilled,own,little,little,furniture/equipment
845,male,skilled,own,little,moderate,furniture/equipment
846,male,skilled,rent,little,little,car
847,male,skilled,own,little,little,car
848,male,skilled,own,little,little,radio/TV
849,male,unskilled and resident,own,little,little,radio/TV
850,male,skilled,rent,little,little,car
851,male,skilled,own,little,little,car
852,male,skilled,free,little,little,radio/TV
853,male,unskilled and resident,free,little,little,car
854,male,skilled,own,little,little,car
855,male,skilled,own,moderate,little,car
856,female,skilled,own,little,little,education
857,male,skilled,free,little,little,furniture/equipment
858,female,skilled,own,little,little,car
859,male,skilled,rent,moderate,little,car
860,male,skilled,own,rich,little,car
861,male,skilled,own,little,little,business
862,female,skilled,own,little,little,radio/TV
863,male,unskilled and resident,own,rich,little,furniture/equipment
864,male,unskilled and resident,rent,little,little,furniture/equipment
865,female,skilled,rent,quite rich,little,furniture/equipment
866,female,skilled,own,little,little,radio/TV
867,male,skilled,own,little,little,furniture/equipment
868,male,skilled,own,little,little,business
869,female,skilled,rent,little,little,furniture/equipment
870,female,skilled,own,quite rich,little,furniture/equipment
871,male,skilled,own,little,rich,car
872,male,skilled,own,moderate,little,business
873,female,skilled,own,little,little,domestic appliances
874,male,unskilled and resident,own,little,little,furniture/equipment
875,female,skilled,own,rich,moderate,car
876,male,highly skilled,free,little,little,radio/TV
877,male,skilled,own,little,little,radio/TV
878,male,highly skilled,free,little,little,car
879,male,skilled,own,little,little,radio/TV
880,male,highly skilled,own,little,little,car
881,male,skilled,free,little,little,car
882,male,skilled,own,little,moderate,car
883,female,unskilled and non-resident,own,little,little,radio/TV
884,male,skilled,own,little,moderate,furniture/equipment
885,female,skilled,own,little,little,education
886,male,skilled,own,little,moderate,business
887,male,skilled,own,little,moderate,business
888,male,highly skilled,own,little,little,car
889,male,skilled,rent,little,little,car
890,male,highly skilled,own,little,little,business
891,male,skilled,own,little,little,radio/TV
892,male,unskilled and resident,own,little,little,car
893,male,skilled,own,little,moderate,car
894,male,skilled,own,little,little,radio/TV
895,male,highly skilled,own,little,little,car
896,female,highly skilled,rent,little,little,radio/TV
897,female,skilled,own,rich,little,furniture/equipment
898,female,unskilled and resident,rent,little,little,furniture/equipment
899,male,skilled,own,little,little,furniture/equipment
900,male,skilled,rent,little,little,car
901,male,skilled,own,little,little,car
902,male,skilled,free,little,little,car
903,male,skilled,rent,little,little,radio/TV
904,male,highly skilled,own,little,little,radio/TV
905,male,highly skilled,rent,little,little,radio/TV
906,male,unskilled and resident,own,little,little,car
907,male,skilled,own,little,moderate,education
908,female,unskilled and resident,own,little,little,car
909,female,unskilled and resident,own,little,moderate,car
910,female,skilled,own,little,little,radio/TV
911,female,unskilled and resident,own,little,moderate,furniture/equipment
912,female,skilled,own,little,moderate,radio/TV
913,male,skilled,own,rich,little,business
914,male,skilled,rent,little,little,business
915,female,highly skilled,own,little,moderate,vacation/others
916,male,skilled,own,moderate,little,car
917,male,highly skilled,own,little,little,car
918,male,skilled,own,moderate,little,furniture/equipment
919,male,highly skilled,rent,little,little,furniture/equipment
920,female,skilled,own,little,little,furniture/equipment
921,male,highly skilled,own,quite rich,little,radio/TV
922,female,skilled,rent,little,little,radio/TV
923,male,skilled,rent,little,moderate,car
924,male,skilled,own,little,little,furniture/equipment
925,male,skilled,own,little,little,car
926,female,skilled,rent,little,little,furniture/equipment
927,male,skilled,free,little,little,car
928,male,skilled,own,little,little,radio/TV
929,male,unskilled and resident,own,little,little,car
930,male,unskilled and resident,own,little,little,furniture/equipment
931,female,skilled,own,little,moderate,radio/TV
932,male,skilled,own,little,little,car
933,male,skilled,own,quite rich,little,radio/TV
934,female,skilled,own,little,little,radio/TV
935,male,highly skilled,own,moderate,moderate,radio/TV
936,female,unskilled and resident,own,little,rich,radio/TV
937,male,highly skilled,rent,little,moderate,radio/TV
938,male,skilled,free,little,moderate,education
939,male,highly skilled,own,little,little,car
940,male,highly skilled,own,little,little,car
941,male,unskilled and resident,own,little,little,car
942,male,skilled,own,little,little,furniture/equipment
943,male,unskilled and resident,own,little,little,car
944,female,skilled,rent,little,little,furniture/equipment
945,female,skilled,own,quite rich,moderate,car
946,male,skilled,free,quite rich,little,furniture/equipment
947,male,highly skilled,own,little,little,car
948,male,unskilled and resident,own,little,little,furniture/equipment
949,male,skilled,own,moderate,little,radio/TV
950,male,unskilled and non-resident,own,little,moderate,business
951,male,skilled,own,little,little,business
952,female,skilled,rent,quite rich,moderate,car
953,female,highly skilled,own,little,little,furniture/equipment
954,female,skilled,own,little,little,car
955,female,highly skilled,rent,rich,little,radio/TV
956,male,unskilled and resident,own,little,rich,radio/TV
957,male,unskilled and resident,own,little,moderate,radio/TV
958,male,unskilled and resident,own,little,little,car
959,male,skilled,free,moderate,moderate,furniture/equipment
960,male,skilled,rent,little,little,radio/TV
961,male,skilled,own,little,moderate,car
962,male,skilled,own,little,little,car
963,male,skilled,own,quite rich,little,radio/TV
964,male,unskilled and resident,own,little,moderate,repairs
965,female,skilled,own,little,moderate,radio/TV
966,male,unskilled and resident,own,quite rich,moderate,radio/TV
967,female,highly skilled,rent,little,little,radio/TV
968,male,skilled,rent,little,little,radio/TV
969,male,unskilled and resident,own,little,little,car
970,male,skilled,own,moderate,moderate,repairs
971,male,unskilled and resident,own,little,little,car
972,female,unskilled and non-resident,rent,little,little,car
973,male,skilled,rent,little,little,business
974,female,skilled,own,little,little,radio/TV
975,female,unskilled and resident,own,quite rich,rich,radio/TV
976,female,skilled,own,little,moderate,radio/TV
977,male,skilled,own,little,moderate,business
978,male,unskilled and resident,own,little,little,car
979,male,skilled,rent,moderate,moderate,car
980,male,skilled,own,little,moderate,furniture/equipment
981,male,highly skilled,rent,little,little,business
982,female,highly skilled,own,moderate,rich,car
983,male,skilled,own,little,little,car
984,male,unskilled and resident,own,little,little,furniture/equipment
985,female,skilled,rent,little,little,furniture/equipment
986,male,skilled,own,little,rich,business
987,female,skilled,own,moderate,little,radio/TV
988,male,highly skilled,free,little,little,car
989,male,unskilled and resident,own,little,moderate,radio/TV
990,male,unskilled and resident,own,little,little,education
991,male,unskilled and resident,own,moderate,little,radio/TV
992,male,unskilled and resident,rent,little,little,radio/TV
993,male,highly skilled,own,little,little,furniture/equipment
994,male,skilled,own,little,little,car
995,female,unskilled and resident,own,little,little,furniture/equipment
996,male,highly skilled,own,little,little,car
997,male,skilled,own,little,little,radio/TV
998,male,skilled,free,little,little,radio/TV
999,male,skilled,own,moderate,moderate,car
